<svg xmlns="http://www.w3.org/2000/svg" width="1220.331" height="467.994" >
    <defs>
        <clipPath id="a">
            <path d="M0 374.395h976.265V0H0v374.395z"/>
        </clipPath>
    </defs>
    <g clip-path="url(#a)" transform="matrix(1.25 0 0 -1.25 0 467.99)">
        <path fill="#373535"
              d="M408.408 212.753l-4.956 16.857c-1.414 4.7-2.833 10.595-4.012 15.31h-.234c-1.173-4.715-2.35-10.723-3.644-15.31l-4.714-16.857h17.56zm-20.145-13.406l-5.667-20.394h-18.61l24.277 79.402h23.553l24.62-79.402H417.12l-6.135 20.394h-22.722z"/>
        <path fill="#373535"
              d="M500.165 258.354v-79.4h-17.9v64.673h-18.016V224.78c0-20.378-2.592-36.17-14.614-43.242-3.998-2.23-9.424-3.892-15.793-3.892l-2.243 14.5c3.905.47 7.086 2.244 9.082 4.232 4.835 5.07 6.006 15.195 6.006 27.225v34.75h53.477zM554.265 212.525h-29.22V193.68h32.622v-14.727h-50.642v79.4h48.988v-14.726h-30.967V227.14h29.22v-14.615zM579.126 258.354V227.85h29.56v30.504h17.91v-79.4h-17.91v33.23h-29.56v-33.23h-18.022v79.4h18.022zM672.067 212.753l-4.936 16.857c-1.41 4.7-2.832 10.595-4.01 15.31h-.24c-1.18-4.715-2.345-10.723-3.637-15.31l-4.715-16.857h17.54zm-20.138-13.406l-5.638-20.394h-18.62l24.257 79.402h23.56l24.617-79.402h-19.32l-6.12 20.394h-22.738zM381.767 113.13c1.775-.243 3.897-.243 6.958-.243 8.123 0 15.31 3.182 15.31 11.433 0 7.996-7.187 11.19-16.14 11.19h-6.128v-22.38zm0 35.204h5.9c9.416 0 14.486 3.892 14.486 9.785 0 5.992-4.6 9.202-12.73 9.202-3.886 0-6.123-.242-7.656-.484v-18.504zm-17.78 30.406c4.72.937 14.257 1.648 23.205 1.648 10.956 0 17.674-1.052 23.44-4.474 5.545-2.94 9.55-8.38 9.55-15.565 0-7.06-4.133-13.648-13.087-16.958v-.227c9.082-2.486 15.792-9.316 15.792-19.556 0-7.2-3.302-12.838-8.245-16.844-5.77-4.6-15.436-7.2-31.22-7.2-8.834 0-15.424.597-19.436 1.193v77.98z"/>
        <path fill="#373535"
              d="M442.81 179.79v-23.56c0-12.724-.233-25.32-.95-35.916h.47c4.124 9.303 9.43 19.77 14.15 28.276l17.072 31.2h18.377v-79.398h-16.49v23.445c0 12.256.233 23.09 1.29 33.46h-.353c-3.65-9.43-8.72-19.912-13.43-28.276l-16.138-28.628h-20.487v79.4h16.488zM516.795 179.79v-30.52h29.568v30.52h17.893v-79.398h-17.893v33.23h-29.568v-33.23h-18.02v79.4h18.02zM589.13 179.79v-30.52h29.582v30.52H636.6v-79.398H618.71v33.23H589.13v-33.23h-18.015v79.4h18.015zM659.94 179.79v-23.56c0-12.724-.242-25.32-.96-35.916h.483c4.125 9.303 9.43 19.77 14.145 28.276l17.07 31.2h18.384v-79.398h-16.51v23.445c0 12.256.24 23.09 1.3 33.46h-.348c-3.642-9.43-8.706-19.912-13.427-28.276l-16.14-28.628h-20.494v79.4h16.496zM733.937 179.79v-64.673h27.8v64.674h17.908v-65.254l8.01-.47-.82-33.814h-13.68l-.93 20.14h-56.31v79.4h18.022zM806.62 179.79v-32.975h1.54l21.898 32.976h21.788l-27.665-35.22c10.24-2.583 14.84-9.656 18.128-19.2 2.84-8.477 5.433-17.098 9.196-24.978h-19.322c-2.712 5.423-4.232 11.545-6.127 17.438-2.705 8.96-6.355 15.792-16.027 15.792h-3.41v-33.23h-17.793v79.4h17.794z"/>
        <path fill="#373535"
              d="M891.325 134.19l-4.928 16.856c-1.434 4.716-2.84 10.594-4.026 15.31h-.234c-1.17-4.716-2.344-10.722-3.642-15.31l-4.716-16.856h17.547zm-20.14-13.437l-5.65-20.362H846.91l24.276 79.4h23.548l24.626-79.4h-19.314l-6.12 20.363h-22.74z"/>
        <path fill="#373535"
              d="M958.483 166.357c-1.3.255-3.634.724-7.312.724-7.753 0-14.01-3.31-14.01-11.446 0-7.3 6.725-11.175 14.84-11.175 2.366 0 4.837.112 6.483.354v21.543zm-44.166-65.965c1.64 2.584 2.94 5.65 3.998 8.945 3.19 9.09 5.063 18.405 11.077 24.157 1.76 1.763 4.112 3.068 6.59 4.12v.368c-8.833 1.647-16.7 7.77-16.7 19.314 0 7.414 3.278 13.08 8.228 16.843 6.128 4.715 15.778 6.25 25.91 6.25 8.72 0 17.078-.712 22.844-1.65v-78.35h-17.78v31.215h-4.368c-3.522 0-6.354-1.05-8.47-3.052-5.063-4.828-7.072-14.97-9.417-21.445-.824-2.356-1.42-4.23-2.84-6.716h-19.073zM105.056 157.253h43.627l-21.828 58.894-21.8-58.894zm226.26 99.567L271.718 95.973l-.023-.014H226.366l-67.18 181.367h45.345l44.515-120.188s41.256 109.834 42.533 113.54c7.64 22.27 2.167 35.42-8.357 44.537-20.874 18.107-53.29 30.846-94.623 31.57-88.128 1.576-161.515-71.278-161.515-159.413 0-25.18 6.83-50.33 17.212-71.504l59.89 161.457h45.366L216.723 95.96h-45.338l-8.706 23.503H91.052s-5.772-19.94-7.882-27.95c-3.478-13.22 1.982-25.42 8.7-32.35 16.36-16.87 57.835-31.74 95.683-31.74 88.837 0 159.987 71.092 159.987 159.213 0 25.194-5.85 49.01-16.225 70.184M187.198 374.395C83.98 374.395 0 290.42 0 187.19 0 83.944 83.98 0 187.198 0c103.224 0 187.197 83.944 187.197 187.19 0 103.23-83.973 187.205-187.197 187.205m0-11.02c97.295 0 176.176-78.876 176.176-176.185 0-97.31-78.88-176.172-176.176-176.172-97.295 0-176.17 78.863-176.17 176.172 0 97.31 78.875 176.184 176.17 176.184"/>
    </g>
</svg>